# Blender MTL File: 'dangoraizis2.blend'
# Material Count: 3

newmtl None
Ns 0
Ka 0.000000 0.000000 0.000000
Kd 0.8 0.8 0.8
Ks 0.8 0.8 0.8
d 1
illum 2
map_Kd C:\Users\Vytautas\Desktop\seamless_granite_texture.jpg

newmtl plytos
Ns 96.078431
Ka 1.000000 1.000000 1.000000
Kd 0.640000 0.640000 0.640000
Ks 0.500000 0.500000 0.500000
Ke 0.000000 0.000000 0.000000
Ni 1.000000
d 1.000000
illum 2
map_Kd C:\Users\Vytautas\Desktop\white_bricks.jpg

newmtl stiklas
Ns 96.078431
Ka 1.000000 1.000000 1.000000
Kd 0.640000 0.640000 0.640000
Ks 0.500000 0.500000 0.500000
Ke 0.000000 0.000000 0.000000
Ni 1.000000
d 1.000000
illum 2
map_Kd C:\Users\Vytautas\Desktop\glass_texture_blue.jpg
